{
	"info": {
		"_postman_id": "466ac9ad-a986-4fc7-8c08-377c4a13ed29",
		"name": "test agileEngine",
		"schema": "https://schema.getpostman.com/json/collection/v2.1.0/collection.json"
	},
	"item": [
		{
			"name": "accounts",
			"request": {
				"method": "GET",
				"header": [],
				"url": {
					"raw": "http://localhost:8080/accounts",
					"protocol": "http",
					"host": [
						"localhost"
					],
					"port": "8080",
					"path": [
						"accounts"
					]
				}
			},
			"response": []
		},
		{
			"name": "list transactions",
			"request": {
				"method": "GET",
				"header": [],
				"url": {
					"raw": "http://localhost:8080/accounts/transactions",
					"protocol": "http",
					"host": [
						"localhost"
					],
					"port": "8080",
					"path": [
						"accounts",
						"transactions"
					]
				}
			},
			"response": []
		},
		{
			"name": "list transaction by ID",
			"request": {
				"method": "GET",
				"header": [],
				"url": {
					"raw": "http://localhost:3000/accounts/transactions/1003",
					"protocol": "http",
					"host": [
						"localhost"
					],
					"port": "3000",
					"path": [
						"accounts",
						"transactions",
						"1003"
					]
				}
			},
			"response": []
		},
		{
			"name": "transactions",
			"request": {
				"method": "POST",
				"header": [
					{
						"key": "Content-Type",
						"name": "Content-Type",
						"value": "application/json",
						"type": "text"
					}
				],
				"body": {
					"mode": "raw",
					"raw": "{\n\t\"type\":\"credit\",\n\t\"amount\":\"5000\"\n}",
					"options": {
						"raw": {
							"language": "json"
						}
					}
				},
				"url": {
					"raw": "http://localhost:8080/accounts/transactions",
					"protocol": "http",
					"host": [
						"localhost"
					],
					"port": "8080",
					"path": [
						"accounts",
						"transactions"
					]
				}
			},
			"response": []
		}
	],
	"protocolProfileBehavior": {}
}